Name,Recipients,IN-001T,IN-002T,IN-003T,IN-004T,IN-006T,IN-009T,IN-014T,IN-015T,IN-016T,IN-021T,IN-031T,IN-008X,IN-010X,IN-015T,KH-002X,KH-003X,KH-004X,KH-005X,PH-001X,PH-002X,PH-003X,PH-004X,PH-005X,PH-006X,PH-007X,SG-001X,SG-002X,SG-003X,TH-001X,From,To
Andre Nobre,6585181527,1,1,1,1,1,1,1,1,1,1,1,1,1,1,1,1,1,1,1,1,1,1,1,1,1,1,1,1,1,TR,TR
Rupesh Baker,917338855542,1,1,1,1,1,1,1,1,1,1,1,1,1,1,1,1,1,1,0,0,0,1,1,1,1,1,1,1,1,TR,TR
Lucas Ferrand,85569313557,0,0,0,0,0,0,0,0,0,0,0,0,0,0,1,1,1,1,0,0,0,0,0,0,0,0,0,0,1,TR,TR
Jeeva Govindarasu,919047055690,1,1,1,1,1,1,1,1,1,1,1,0,0,1,0,0,0,0,0,0,0,0,0,0,0,0,0,0,0,TR,TR
Rohit Jaswal,919717222419,1,1,1,1,1,1,1,1,1,1,1,1,1,0,0,0,0,0,0,0,0,0,0,0,0,0,0,0,0,TR,TR
A,918154801246,0,0,0,0,0,0,0,0,0,0,0,1,1,0,0,0,0,0,0,0,0,0,0,0,0,0,0,0,0,TR,TR
B,85512304332,0,0,0,0,0,0,0,0,0,0,0,0,0,0,1,1,1,0,0,0,0,0,0,0,0,0,0,0,0,TR,TR
C,85512341545,0,0,0,0,0,0,0,0,0,0,0,0,0,0,0,1,1,0,0,0,0,0,0,0,0,0,0,0,0,TR,TR
D,85593561212,0,0,0,0,0,0,0,0,0,0,0,0,0,0,0,0,0,0,0,0,0,0,0,0,0,0,0,0,0,TR,TR
E,85592811076,0,0,0,0,0,0,0,0,0,0,0,0,0,0,0,0,0,1,0,0,0,0,0,0,0,0,0,0,0,TR,TR
F,639985872149,0,0,0,0,0,0,0,0,0,0,0,0,0,0,0,0,0,0,1,1,1,1,1,1,0,0,0,0,0,TR,TR
G,6585181527,0,0,0,0,0,0,0,0,0,0,0,0,0,0,0,0,0,0,0,0,0,0,0,0,0,0,0,0,0,TR,TR
H,6592956355,0,0,0,0,0,0,0,0,0,0,0,0,0,0,0,0,0,0,0,0,0,0,0,0,0,1,1,1,0,TR,TR
Yatin Shah,919004475317,0,0,0,0,0,0,0,0,0,0,1,0,0,0,0,0,0,0,0,0,0,0,0,0,0,0,0,0,0,TR,TR
Pichet,66928726950,0,0,0,0,0,0,0,0,0,0,0,0,0,0,0,0,0,0,0,0,0,0,0,0,0,0,0,0,1,TR,TR
I,85512236207,0,0,0,0,0,0,0,0,0,0,0,0,0,0,0,1,1,0,0,0,0,0,0,0,0,0,0,0,0,TR,TR
